ex_2a/trace_file.vcd
$date
     Jan 28, 2024       12:23:50
$end

$version
 SystemC 2.3.3-Accellera --- Jan 28 2024 00:33:39
$end

$timescale
     1 ps
$end

$scope module SystemC $end
$var wire    1  aaaaa  clock       $end
$var wire    1  aaaab  empty       $end
$var wire   32  aaaac  fifo_fill_level [31:0]  $end
$var wire    1  aaaad  full       $end
$var wire    8  aaaae  fifo_in [7:0]  $end
$var wire    8  aaaaf  fifo_out [7:0]  $end
$var wire    1  aaaag  rd_en       $end
$var wire    1  aaaah  wr_en       $end
$var wire    1  aaaaj  fetch       $end
$var wire    1  aaaak  send       $end
$scope module co1 $end
$var wire    1  aaaai  data_valid       $end
$upscope $end
$upscope $end
$enddefinitions  $end

$comment
All initial values are dumped below at time 0 sec = 0 timescale units.
$end

$dumpvars
1aaaaa
1aaaab
b0 aaaac
0aaaad
b11111111 aaaae
b11111111 aaaaf
0aaaag
0aaaah
0aaaai
0aaaaj
0aaaak
$end

#50000
0aaaaa

#100000
1aaaaa

#150000
0aaaaa

#200000
1aaaaa

#250000
0aaaaa

#300000
1aaaaa
b0 aaaae
1aaaah
1aaaak

#350000
0aaaaa

#400000
1aaaaa
0aaaab
b1 aaaac
0aaaah
0aaaak

#450000
0aaaaa

#500000
1aaaaa
1aaaag
1aaaaj

#550000
0aaaaa

#600000
1aaaaa
1aaaab
b0 aaaac
b1 aaaae
b0 aaaaf
0aaaag
1aaaah
1aaaai
0aaaaj
1aaaak

#650000
0aaaaa

#700000
1aaaaa
0aaaab
b1 aaaac
0aaaah
0aaaai
0aaaak

#750000
0aaaaa

#800000
1aaaaa
b10 aaaae
1aaaah
1aaaak

#850000
0aaaaa

#900000
1aaaaa
b10 aaaac
0aaaah
0aaaak

#950000
0aaaaa

#1000000
1aaaaa

#1050000
0aaaaa

#1100000
1aaaaa
b11 aaaae
1aaaag
1aaaah
1aaaaj
1aaaak

#1150000
0aaaaa

#1200000
1aaaaa
b1 aaaaf
0aaaag
0aaaah
1aaaai
0aaaaj
0aaaak

#1250000
0aaaaa

#1300000
1aaaaa
0aaaai

#1350000
0aaaaa

#1400000
1aaaaa
b100 aaaae
1aaaah
1aaaak

#1450000
0aaaaa

#1500000
1aaaaa
b11 aaaac
b101 aaaae

#1550000
0aaaaa

#1600000
1aaaaa
b100 aaaac
b110 aaaae
1aaaag
1aaaaj

#1650000
0aaaaa

#1700000
1aaaaa
b111 aaaae
b10 aaaaf
0aaaag
1aaaai
0aaaaj

#1750000
0aaaaa

#1800000
1aaaaa
b101 aaaac
1aaaad
b1000 aaaae
0aaaai

#1850000
0aaaaa

#1900000
1aaaaa

#1950000
0aaaaa

#2000000
1aaaaa
1aaaag
1aaaaj

#2050000
0aaaaa

#2100000
1aaaaa
b100 aaaac
0aaaad
b11 aaaaf
1aaaai

#2150000
0aaaaa

#2200000
1aaaaa
b1001 aaaae
b100 aaaaf
0aaaag
0aaaaj

#2250000
0aaaaa

#2300000
1aaaaa
b101 aaaac
1aaaad
b1010 aaaae
1aaaag
0aaaai
1aaaaj

#2350000
0aaaaa

#2400000
1aaaaa
b100 aaaac
0aaaad
b101 aaaaf
0aaaah
1aaaai
0aaaak

#2450000
0aaaaa

#2500000
1aaaaa
b11 aaaac
b110 aaaaf
1aaaah
1aaaak

#2550000
0aaaaa

#2600000
1aaaaa
b111 aaaaf
0aaaah
0aaaak

#2650000
0aaaaa

#2700000
1aaaaa
b10 aaaac
b1000 aaaaf

#2750000
0aaaaa

#2800000
1aaaaa
b1 aaaac
b1001 aaaaf

#2850000
0aaaaa

#2900000
1aaaaa
1aaaab
b0 aaaac
b1010 aaaaf

#2950000
0aaaaa

#3000000
1aaaaa
0aaaai

#3050000
0aaaaa

#3100000
1aaaaa

#3150000
0aaaaa

#3200000
1aaaaa

#3250000
0aaaaa

#3300000
1aaaaa
0aaaag
0aaaaj

#3350000
0aaaaa

#3400000
1aaaaa

#3450000
0aaaaa

#3500000
1aaaaa
1aaaag
1aaaaj

#3550000
0aaaaa

#3600000
1aaaaa
0aaaag
0aaaaj

#3650000
0aaaaa

#3700000
1aaaaa

#3750000
0aaaaa

#3800000
1aaaaa

#3850000
0aaaaa

#3900000
1aaaaa

#3950000
0aaaaa

#4000000
1aaaaa
1aaaag
1aaaaj

#4050000
0aaaaa

#4100000
1aaaaa
0aaaag
0aaaaj

#4150000
0aaaaa

#4200000
1aaaaa

#4250000
0aaaaa

#4300000
1aaaaa

#4350000
0aaaaa

#4400000
1aaaaa

#4450000
0aaaaa

#4500000
1aaaaa

#4550000
0aaaaa

#4600000
1aaaaa
b1011 aaaae
1aaaag
1aaaah
1aaaaj
1aaaak

#4650000
0aaaaa

#4700000
1aaaaa
0aaaab
b1 aaaac
0aaaag
0aaaah
0aaaaj
0aaaak

#4750000
0aaaaa

#4800000
1aaaaa

#4850000
0aaaaa

#4900000
1aaaaa
b1100 aaaae
1aaaah
1aaaak

