ex_2b/trace_file.vcd
$date
     Jan 14, 2024       15:28:50
$end

$version
 SystemC 2.3.3-Accellera --- Sep 11 2020 14:03:55
$end

$timescale
     1 ps
$end

$scope module SystemC $end
$var wire    1  aaaaa  clock       $end
$var wire   32  aaaab  fifo_fill_level [31:0]  $end
$var wire    1  aaaac  fifo_full       $end
$var wire    8  aaaad  fifo_in [7:0]  $end
$var wire    8  aaaae  fifo_out [7:0]  $end
$var wire    1  aaaaf  valid       $end
$var wire    1  aaaag  rd_en       $end
$var wire    1  aaaah  wr_en       $end
$var wire    1  aaaai  fetch       $end
$var wire    1  aaaaj  send       $end
$upscope $end
$enddefinitions  $end

$comment
All initial values are dumped below at time 0 sec = 0 timescale units.
$end

$dumpvars
1aaaaa
b0 aaaab
0aaaac
b11111111 aaaad
b11111111 aaaae
0aaaaf
0aaaag
0aaaah
0aaaai
0aaaaj
$end

#50000
0aaaaa

#100000
1aaaaa

#150000
0aaaaa

#200000
1aaaaa

#250000
0aaaaa

#300000
1aaaaa
b0 aaaad
1aaaah
1aaaaj

#350000
0aaaaa

#400000
1aaaaa
b1 aaaab
b0 aaaae
1aaaaf
0aaaah
0aaaaj

#450000
0aaaaa

#500000
1aaaaa
1aaaag
1aaaai

#550000
0aaaaa

#600000
1aaaaa
b0 aaaab
b1 aaaad
0aaaaf
0aaaag
1aaaah
0aaaai
1aaaaj

#650000
0aaaaa

#700000
1aaaaa
b1 aaaab
b1 aaaae
1aaaaf
0aaaah
0aaaaj

#750000
0aaaaa

#800000
1aaaaa
b10 aaaad
1aaaah
1aaaaj

#850000
0aaaaa

#900000
1aaaaa
b10 aaaab
0aaaah
0aaaaj

#950000
0aaaaa

#1000000
1aaaaa

#1050000
0aaaaa

#1100000
1aaaaa
b11 aaaad
1aaaag
1aaaah
1aaaai
1aaaaj

#1150000
0aaaaa

#1200000
1aaaaa
b10 aaaae
0aaaag
0aaaah
0aaaai
0aaaaj

#1250000
0aaaaa

#1300000
1aaaaa

#1350000
0aaaaa

#1400000
1aaaaa
b100 aaaad
1aaaah
1aaaaj

#1450000
0aaaaa

#1500000
1aaaaa
b11 aaaab
b101 aaaad

#1550000
0aaaaa

#1600000
1aaaaa
b100 aaaab
b110 aaaad
1aaaag
1aaaai

#1650000
0aaaaa

#1700000
1aaaaa
b111 aaaad
b100 aaaae
0aaaag
0aaaai

#1750000
0aaaaa

#1800000
1aaaaa
b101 aaaab
b1000 aaaad

#1850000
0aaaaa

#1900000
1aaaaa
b110 aaaab
1aaaac
b1001 aaaad

#1950000
0aaaaa

#2000000
1aaaaa
1aaaag
1aaaai

#2050000
0aaaaa

#2100000
1aaaaa
b101 aaaab
0aaaac

#2150000
0aaaaa

#2200000
1aaaaa
b1010 aaaad
0aaaag
0aaaai

#2250000
0aaaaa

#2300000
1aaaaa
b110 aaaab
1aaaac
b1011 aaaad
1aaaag
1aaaai

#2350000
0aaaaa

#2400000
1aaaaa
b101 aaaab
0aaaac
0aaaah
0aaaaj

#2450000
0aaaaa

#2500000
1aaaaa
b100 aaaab
1aaaah
1aaaaj

#2550000
0aaaaa

#2600000
1aaaaa
b1011 aaaae
0aaaah
0aaaaj

#2650000
0aaaaa

#2700000
1aaaaa
b11 aaaab

#2750000
0aaaaa

#2800000
1aaaaa
b10 aaaab

#2850000
0aaaaa

#2900000
1aaaaa
b1 aaaab

#2950000
0aaaaa

#3000000
1aaaaa
b0 aaaab
0aaaaf

#3050000
0aaaaa

#3100000
1aaaaa

#3150000
0aaaaa

#3200000
1aaaaa

#3250000
0aaaaa

#3300000
1aaaaa
0aaaag
0aaaai

#3350000
0aaaaa

#3400000
1aaaaa

#3450000
0aaaaa

#3500000
1aaaaa
1aaaag
1aaaai

#3550000
0aaaaa

#3600000
1aaaaa
0aaaag
0aaaai

#3650000
0aaaaa

#3700000
1aaaaa

#3750000
0aaaaa

#3800000
1aaaaa

#3850000
0aaaaa

#3900000
1aaaaa

#3950000
0aaaaa

#4000000
1aaaaa
1aaaag
1aaaai

#4050000
0aaaaa

#4100000
1aaaaa
0aaaag
0aaaai

#4150000
0aaaaa

#4200000
1aaaaa

#4250000
0aaaaa

#4300000
1aaaaa

#4350000
0aaaaa

#4400000
1aaaaa

#4450000
0aaaaa

#4500000
1aaaaa

#4550000
0aaaaa

#4600000
1aaaaa
b1100 aaaad
1aaaag
1aaaah
1aaaai
1aaaaj

#4650000
0aaaaa

#4700000
1aaaaa
b1 aaaab
b1100 aaaae
1aaaaf
0aaaag
0aaaah
0aaaai
0aaaaj

#4750000
0aaaaa

#4800000
1aaaaa

#4850000
0aaaaa

#4900000
1aaaaa
b1101 aaaad
1aaaah
1aaaaj

